ThucHanh/Lab3/SourceCode/simulation/qsim/lab_3.msim.vcd
$comment
	File created using the following command:
		vcd file lab_3.msim.vcd -direction
$end
$date
	Sat Apr 12 20:27:23 2025
$end
$version
	ModelSim Version 10.1d
$end
$timescale
	1ps
$end
$scope module lab_3_mealy_vlg_vec_tst $end
$var reg 1 ! X $end
$var reg 1 " clk $end
$var reg 1 # rst $end
$var wire 1 $ Z $end
$var wire 1 % sampler $end
$scope module i1 $end
$var wire 1 & gnd $end
$var wire 1 ' vcc $end
$var wire 1 ( unknown $end
$var tri1 1 ) devclrn $end
$var tri1 1 * devpor $end
$var tri1 1 + devoe $end
$var wire 1 , clk~combout $end
$var wire 1 - X~combout $end
$var wire 1 . cur_state.01~0_combout $end
$var wire 1 / rst~combout $end
$var wire 1 0 cur_state.01~regout $end
$var wire 1 1 next_state.10~0_combout $end
$var wire 1 2 cur_state.10~regout $end
$var wire 1 3 Z~1_combout $end
$upscope $end
$upscope $end
$enddefinitions $end
#0
$dumpvars
0!
0"
0#
0$
x%
0&
1'
x(
1)
1*
1+
0,
0-
1.
0/
00
01
02
13
$end
#10000
1"
1,
0%
10
#20000
1!
0"
1-
0,
1%
11
0.
#30000
1"
1,
0%
12
00
01
#40000
0!
0"
0-
0,
1%
03
1.
1$
#50000
1"
1,
0%
02
10
13
0$
#60000
1!
0"
1-
0,
1%
11
0.
#70000
1"
1,
0%
12
00
01
#80000
0"
0,
1%
#90000
1"
1,
0%
02
#100000
0!
0"
0-
0,
1%
1.
#110000
1"
1,
0%
10
#120000
0"
0,
1%
#130000
1"
1,
0%
#140000
1!
0"
1-
0,
1%
11
0.
#150000
1"
1,
0%
12
00
01
#160000
1#
0!
0"
1/
0-
0,
1%
03
1.
1$
02
13
0$
#170000
1"
1,
0%
#180000
0#
0"
0/
0,
1%
#190000
1"
1,
0%
10
#200000
1!
0"
1-
0,
1%
11
0.
#210000
1"
1,
0%
12
00
01
#220000
0!
0"
0-
0,
1%
03
1.
1$
#230000
1"
1,
0%
02
10
13
0$
#240000
1!
0"
1-
0,
1%
11
0.
#250000
1"
1,
0%
12
00
01
#260000
0!
0"
0-
0,
1%
03
1.
1$
#270000
1"
1,
0%
02
10
13
0$
#280000
1!
0"
1-
0,
1%
11
0.
#290000
1"
1,
0%
12
00
01
#300000
0!
0"
0-
0,
1%
03
1.
1$
#310000
1"
1,
0%
02
10
13
0$
#320000
1!
0"
1-
0,
1%
11
0.
#330000
1"
1,
0%
12
00
01
#340000
0!
0"
0-
0,
1%
03
1.
1$
#350000
1"
1,
0%
02
10
13
0$
#360000
0"
0,
1%
#370000
1"
1,
0%
#380000
0"
0,
1%
#390000
1"
1,
0%
#400000
0"
0,
1%
#410000
1"
1,
0%
#420000
0"
0,
1%
#430000
1"
1,
0%
#440000
0"
0,
1%
#450000
1"
1,
0%
#460000
0"
0,
1%
#470000
1"
1,
0%
#480000
0"
0,
1%
#490000
1"
1,
0%
#500000
0"
0,
1%
#510000
1"
1,
0%
#520000
0"
0,
1%
#530000
1"
1,
0%
#540000
0"
0,
1%
#550000
1"
1,
0%
#560000
0"
0,
1%
#570000
1"
1,
0%
#580000
0"
0,
1%
#590000
1"
1,
0%
#600000
0"
0,
1%
#610000
1"
1,
0%
#620000
0"
0,
1%
#630000
1"
1,
0%
#640000
0"
0,
1%
#650000
1"
1,
0%
#660000
0"
0,
1%
#670000
1"
1,
0%
#680000
0"
0,
1%
#690000
1"
1,
0%
#700000
0"
0,
1%
#710000
1"
1,
0%
#720000
0"
0,
1%
#730000
1"
1,
0%
#740000
0"
0,
1%
#750000
1"
1,
0%
#760000
0"
0,
1%
#770000
1"
1,
0%
#780000
0"
0,
1%
#790000
1"
1,
0%
#800000
0"
0,
1%
#810000
1"
1,
0%
#820000
0"
0,
1%
#830000
1"
1,
0%
#840000
0"
0,
1%
#850000
1"
1,
0%
#860000
0"
0,
1%
#870000
1"
1,
0%
#880000
0"
0,
1%
#890000
1"
1,
0%
#900000
0"
0,
1%
#910000
1"
1,
0%
#920000
0"
0,
1%
#930000
1"
1,
0%
#940000
0"
0,
1%
#950000
1"
1,
0%
#960000
0"
0,
1%
#970000
1"
1,
0%
#980000
0"
0,
1%
#990000
1"
1,
0%
